void itemPickup() =
{
	//ADD ITEM TO ITEM LINKED LIST
	
	//REMOVE IT IN PLAYERS self.use() which calls self.item.use() (which should be the head of the linked list)
};

//WILL PROBABLY HAVE TO DO SOMETHING ABOUT TRYING TO PICK SOMETHING UP WHEN
//THE PLAYER IS TOUCHING MULTIPLE ITEMS.
// consult spike if no answers come to you 
//probably just set a flag that says ignore until next frame.
//not quite sure how to do that.
//if you say ignore for 1 second, then the next time it might be a different weapon, and cause weirdness.
//but if its frame, the first item in the stack should get the touch, so it will be consistantly the same item....im pretty sure.
//since i think it goes down the list of entities.

// player.pickup. calls item.pickup. woot.
void itemTouch() = //same touch for anything that requires asking the player if they want to pick it up or use it.
{							//ammo and armor arent going to use this. they'll just have regular .touch.
	local string str;		//but healthboxes, weapons, and anything that can go into an inventory slot or be used will

	if (!(other.flags & FL_CLIENT))
		return;

	if(other.impulse != 55)
	{
		if(self.weapon)
		{
			if(hasWeapon(other, self.weapon))
				str = strcat("Press (x) to pickup ", self.netname, "\n");

			else
				str = strcat("Press (x) to collect", self.netname, " ammo\n");
		}

		if(self.use)
		{
			if(other.impulse != 56)
			{	//fixing compile bugs using old fteqcc...this will compile fine with a more recent version
//				centerprint(other, str, "Press (y) to use", self.netname, "\n");					
				return;
			}

			sound(other, CHAN_ITEM, self.noise, 1, ATTN_NORM);	
			self.use(); 	//change to th_use or whatever...in every qc file. 	
		}

		centerprint(other, str);					
		return;
	}	

	sound (other, CHAN_ITEM, self.noise, 1, ATTN_NORM);
	
	//another line that should be finewith a newer fteqcc
//	self.pickup();
};

void weaponPickup() =
{
	local entity e;

	//take ammo, leaving emptied gun on the ground...halo style
	if(hasWeapon(other, self.weapon))
	{
		e = other.weap; 
		do	//scroll until fail to find the apropriate weapon, add ammo to said weapon if found
		{
			if(self.ammoType == e.ammoType)		//using .items to find the correct player weapon in the chain to activate. much faster. do use.
			{
				if(e.ammo + self.ammo <= e.ammoMax)
				{
					self.ammo = 0;
					e.ammo += self.ammo; 		//give the weapon entity ammo.
				}
			
				else
				{
					self.ammo -= (e.ammoMax - e.ammo);
					e.ammo = e.ammoMax;			//cap ammo grab	
				}
	//requires nwere fteqcc
//				 	sprint (other, "You got some ammo", self.netname, "ammo.\n");
			}
		}while(e != other.weap);
	}

	else	//if they DONT have the weapon, 
	{
		self.model = string_null;
		self.solid = SOLID_NOT;
		addWeapon(other, self);
	//old fteqcc 
//	 	sprint (other, "You got the ", self.netname, "\n");
	}

	sound (other, CHAN_ITEM, self.noise, 1, ATTN_NORM);
	stuffcmd (other, "bf\n");

	activator = other;
	SUB_UseTargets();				// fire all targets / killtargets
};

void ammoPickup() =
{
	local entity e;

	if (!(other.flags & FL_CLIENT))
		return;

	e = other.weap; 
	do 	//scroll until fail to find the apropriate weapon, add ammo to said weapon if found
	{
		if(self.ammoType == e.ammoType)		//using .items to find the correct player weapon in the chain to activate. much faster. do use.
		{
			if(e.ammo + self.ammo <= e.ammoMax)
				e.ammo += self.ammo; 		//give the weapon entity ammo.
			else
				e.ammo = e.ammoMax;			//cap ammo grab	

	//update fteqcc, try again
//		 	sprint (other, "You got the ", self.netname, "\n");
			sound (other, CHAN_ITEM, self.noise, 1, ATTN_NORM);
			stuffcmd (other, "bf\n");

			self.model = string_null;
			self.solid = SOLID_NOT;
	
			activator = other;
			SUB_UseTargets();				// fire all targets / killtargets
		}
	
		 e = e.weap;
	}while(e != other.weap);								
};

