
/*
	//weapon types
	define WT_MELEE 	= 0;
	define WT_PISTOL 	= 1;
	defube WT_RIFLE 	= 2;
	define WT_ASSAULT 	= 3;
	define WT_ROCKET 	= 4;
	define WT_EXPLOSIVE = 5;

	//damage types
	define DT_NORMAL 	= 0;
	define DT_FIRE 		= 1;
	define DT_PLASMA 	= 2;
	define DT_ELECTRIC 	= 3;
	define DT_ACID 		= 4;

*/


//WHAT TO DO ABOUT HOLD TO CHARGE WEAPONS?

void fireWeapon() =
{
//	local float damage;
	local entity oself;

	//play triggerpull animation. should be funny to watch when theres no weapon :  )
	
	if(!self.weap)
		return;

	if(self.weap.attack_finished > time)
	{
		sound(self, CHAN_ITEM, self.weap.emptySound, 1, ATTN_NORM); //click click click
		return;
	}

	makevectors	(self.v_angle);		// calculate forward angle for velocity
	self.show_hostile = time + 1;	// wake monsters up


	self.weap.attack_finished = self.weap.attack_finished + self.weap.attackTime;
	self.reloadTime = time + self.weap.reloadTime;

	self.count = self.burst;	//setup for counting down burst fire

	//self here is player


	oself = self;
	self = self.weap;
	self.nextthink = self.fireDelay;
	self.think = self.fire;
	self = oself;
};


//add multi damage, firebullets, stuff like that goes here
