void insertShell() =
{/*	calls itself, doesnt do anything if reloadTime cooldown isnt finished.
	does it this way so as to avoid taking up a self.think.*/

	//self.weapon.insertShellAnimation();
	self.currentammo = self.weap.ammo = self.weap.ammo - 1;

	self.reloadTime = time + self.weap.reloadTime;

	if(self.currentammo < self.weap.ammoMax)
		insertShell();
};


//weapon.ammo; //total ammo the weapon has.
//weapon.ammoMax;//total amount of ammo player (and therefore weapon, as its a container object) can hold.

//weapon.clip; //ammo loaded into the clip at present			(if clip weapon)
//weapon.clipMax;//max ammo clip can hold						ditto

void changeClip() =
{
	float need;
	need = self.weap.clipMax - self.weap.clip;

	if(!need)
		return;	//maybe play a sound or animation here..no reload necessary.

	if(need < self.weap.ammo)		//if you have more ammo than you need 
	{
		self.weap.clip = self.weap.clipMax;	//fill clip
		self.weap.ammo -= need;	//deduct ammo
	}

	else
	{	//just empty weapons ammocount into the clip
		self.weap.clip = self.weap.ammo;
		self.weap.ammo = 0;
	}

	self.reloadTime = time + self.weap.reloadTime;	//	
	self.currentammo = self.weap.clip; //set hud ammo
};

void reloadWeapon() =
{
	local entity oself;

	//stop this bullshit if you dont have any ammo to insert
	if(!self.weap.ammo)
		return;

	if(self.reloadTime > time)
		return;

	oself = self;
	self = self.weap;
	self.reload();
	self = oself;

};

