
void healthUse() =
{
	other.health += self.health;
	stuffcmd (other, "bf\n");
};

void classItem_health() = 
{
	//update fteqcc; try again
//	self.pickup = itemPickup;
//	self.use = healthUse();

	precache_model("maps/b_bh100.bsp");
	precache_sound("items/r_item2.wav");
	setmodel(self, "maps/b_bh100.bsp");
	self.noise = "items/r_item2.wav";
	self.health = 100;
	setsize (self, '0 0 0', '32 32 56');
};

