void nextItem() = 
{
	self.inventory = self.inventory.nxt;
};

void prevItem() = 
{
	self.inventory = self.inventory.prv;
};

//when this uses the widget library,
//it will probably need an argument for who to remove it from
//and what item to remove, since the entire inventory will be visible at once
//and not just self.inventory as this currently uses.
void dropItem() = 
{
	local entity e;

	e = self.inventory;
	e.origin = self.origin - '0 0 24';	

	//last time i did this, i fiddle with these here numbers a bit
	//and resized the items and guns before i flung 'em
	//i 'spect'n i'll want to do that again, so take note, it aint been done yet
	e.velocity_z = 300;
	e.velocity_x = -100 + (random() * 200);
	e.velocity_y = -100 + (random() * 200);
	
	e.solid = SOLID_TRIGGER;
	e.movetype = MOVETYPE_TOSS;
	setmodel (e, "progs/backpack.mdl");

	removeWeapon();
};

void addItem(entity p, entity i) =	//(p)layer, (i)tem
{
	i.nxt = p.inventory.nxt;
	i.prv = p.inventory.prv;
};	
	
void removeItem() = 
{
	local entity e;

	e = self.inventory;
	//dont remove sentinel node
	if(e.items == 42)
		return;

	e.prv.nxt = e.nxt;
	e.nxt.prv = e.prv;

	remove(e);	//unlike weapons, items get consumed. so they can be removed
};


//players use function. calls his items use function
void useItem() = 
{
	//the items .use() should probably be responsible for 
	//removing itself...
	//so you can lower stack count, or any other sort of special case shit
	if(self.inventory.use)
		self.inventory.use();
};

