void armorCharge() =
{
	self.charge += self.rechargeRate;

	if(self.charge < self.chargeMax)	//dont bother setting the think if you're full. it'll get set when you take damage again.
	{
		self.nextthink = 0.2;
		self.think = armorCharge;
	}
};


float vaultHunterArmor(entity targ, entity inflictor, entity attacker, float damage, float weapType, float damType) = 
{
	self.nextthink = self.rechargeDelay;	//delay recharge
	self.think = armorCharge;

	if(self.charge - damage > 0)
	{
		self.charge -= damage;
		damage = 0;
	}
	else
		damage -= self.charge;

	return damage;
};

