float shubArmor (entity targ, entity inflictor, entity attacker, float damage, float weapType, float damType) = 
{
	//gnounc -- shub kill crash fix.
	if(damage < 9999)
		damage = 0;

	return damage;
};

void() item_shubArmor =		
{
	self.touch = armor_touch;//make a new touch function <--- NEEDS UPDATING
	self.health = 1;	//needs health so it can be setup for removal when shot. //skips setting up a timer
	self.duration = 30;

	self.armorUse = shubArmor;		//<-----the important bit right thurr

	precache_model ("progs/suit.mdl");
	precache_sound ("items/suit.wav");
	precache_sound ("items/suit2.wav");
	self.noise = "items/suit.wav";
	setmodel (self, "progs/suit.mdl");
	self.netname = "Biosuit";
	self.items = IT_SUIT;
	setsize (self, '-16 -16 -24', '16 16 32');
	StartItem ();
};
